{
   "run_name":"xpr_spark_e2e_200_1_1a",
   "project_name":"xpr_spark_e2e_200_1",
   "pipeline_name":"feature_engg_and_classifier_pipeline",
   "pipeline_version":2,

   "run_parameters":{
      "driver_memory":"512m",
      "executor_memory":"512m",
      "executor_cores":"1",
      "num_executors":1,

      "model_param_numTrees":"7",
      "model_param_maxDepth":"7"
   }
}
